Assignment 8
…
## Warning in summary.lm(lm(d1[[j]] ~ d1[[i]], d1)): essentially perfect fit:
## summary may be unreliable

## Warning in summary.lm(lm(d1[[j]] ~ d1[[i]], d1)): essentially perfect fit:
## summary may be unreliable

## Warning in summary.lm(lm(d1[[j]] ~ d1[[i]], d1)): essentially perfect fit:
## summary may be unreliable

## Warning in summary.lm(lm(d1[[j]] ~ d1[[i]], d1)): essentially perfect fit:
## summary may be unreliable

## # A tibble: 49 x 3
##    x1          x2                r
##    <chr>       <chr>         <dbl>
##  1 PassengerId PassengerId 1      
##  2 PassengerId Survived    0.00003
##  3 PassengerId Pclass      0.00124
##  4 PassengerId Age         0.00136
##  5 PassengerId SibSp       0.00331
##  6 PassengerId Parch       0      
##  7 PassengerId Fare        0.00016
##  8 Survived    PassengerId 0.00003
##  9 Survived    Survived    1      
## 10 Survived    Pclass      0.115  
## # ... with 39 more rows
